-------------------------------------------------------------------------------
Test set: net.techu.api.ProductosControllerTest
-------------------------------------------------------------------------------
Tests run: 3, Failures: 0, Errors: 0, Skipped: 0, Time elapsed: 0.191 s - in net.techu.api.ProductosControllerTest
