C:\Users\carme\proyecto\api\src\test\java\net\techu\api\HolaControllerTest.java
C:\Users\carme\proyecto\api\src\test\java\net\techu\api\ApiApplicationTests.java
C:\Users\carme\proyecto\api\src\test\java\net\techu\api\ProductosControllerTest.java
